[
  {
    "title": "Test Oppgave",
    "priority": "High",
    "description": "Hei, jeg er en kul test!",
    "category": "Tester og slik",
    "startDate": "2021-04-10",
    "endDate": "2021-05-06",
    "doingStatus": "toDo"
  }
]